cuza_voda: [0.015231788079470199, 0.005960264900662252, 0.0026490066225165563, 0.00728476821192053, 0.9688741721854305]
cuza_voda: [  23    9    4   11 1463]
garii: [0.0, 0.0, 0.0, 0.0, 1.0]
garii: [  0   0   0   0 714]
ion_creanga: [0.0, 0.0009791921664626683, 0.002203182374541004, 0.003916768665850673, 0.9929008567931457]
ion_creanga: [   0    4    9   16 4056]
morii: [0.0, 0.0008920606601248885, 0.0008920606601248885, 0.0026761819803746653, 0.9955396966993756]
morii: [   0    1    1    3 1116]
stadionului: [0.0, 0.0, 0.0, 0.0, 1.0]
stadionului: [  0   0   0   0 891]
stefan_cel_mare: [0.0, 0.0, 0.0, 0.0018808777429467085, 0.9981191222570532]
stefan_cel_mare: [   0    0    0    6 3184]
transilvaniei: [0.0, 0.0, 0.0, 0.0, 1.0]
transilvaniei: [   0    0    0    0 3671]
unirii: [0.0, 0.0008093889113719142, 0.0008093889113719142, 0.0008093889113719142, 0.9975718332658843]
unirii: [   0    2    2    2 2465]
total: [0.0013028946921203196, 0.0009063615249532657, 0.0009063615249532657, 0.002152608621764006, 0.9947317736362091]
total: [   23    16    16    38 17560]
