\relax 
\@input{guideline.aux}
\@writefile{toc}{\contentsline {chapter}{Capitolul{} \numberline {1}Introducere - Contextul proiectului}{4}}
\@writefile{lof}{\addvspace {10\p@ }}
\@writefile{lot}{\addvspace {10\p@ }}
\@writefile{toc}{\contentsline {section}{\numberline {1.1}Contextul proiectului}{4}}
\@writefile{toc}{\contentsline {section}{\numberline {1.2}Motiva\c {t}ia}{5}}
\@writefile{toc}{\contentsline {section}{\numberline {1.3}Structura lucr\u {a}rii}{5}}
\@writefile{toc}{\contentsline {chapter}{Capitolul{} \numberline {2}Obiectivele Proiectului}{7}}
\@writefile{lof}{\addvspace {10\p@ }}
\@writefile{lot}{\addvspace {10\p@ }}
\@writefile{toc}{\contentsline {section}{\numberline {2.1}Investigarea unei metode alternative de localizare}{7}}
\@writefile{toc}{\contentsline {section}{\numberline {2.2}Framework pentru crearea unui clasificator}{8}}
\@writefile{toc}{\contentsline {section}{\numberline {2.3}Dataset}{8}}
\@writefile{toc}{\contentsline {section}{\numberline {2.4}Cerin\c {t}e Func\c {t}ionale}{8}}
\@writefile{toc}{\contentsline {subsection}{\numberline {2.4.1}Antrenarea \c {s}i testarea unor Re\c {t}ele Convolu\c {t}ionale}{8}}
\@writefile{toc}{\contentsline {subsection}{\numberline {2.4.2}Preg\u {a}tirea setului de date pentru antrenare}{8}}
\@writefile{toc}{\contentsline {subsection}{\numberline {2.4.3}Predic\c {t}ii folosind modelele antrenate}{9}}
\@writefile{toc}{\contentsline {section}{\numberline {2.5}Cerin\c {t}e Non-Func\c {t}ionale}{9}}
\@writefile{toc}{\contentsline {subsection}{\numberline {2.5.1}Scalabilitate}{9}}
\@writefile{toc}{\contentsline {subsection}{\numberline {2.5.2}Mentenabilitate}{9}}
\@writefile{toc}{\contentsline {subsection}{\numberline {2.5.3}Reutilizabilitate}{9}}
\@writefile{toc}{\contentsline {subsection}{\numberline {2.5.4}Documentare}{9}}
\@writefile{toc}{\contentsline {subsection}{\numberline {2.5.5}Timp de r\u {a}spuns}{9}}
\citation{deepReview}
\citation{relu}
\citation{imagineDNN}
\citation{places}
\@writefile{toc}{\contentsline {chapter}{Capitolul{} \numberline {3}Studiu Bibliografic}{10}}
\@writefile{lof}{\addvspace {10\p@ }}
\@writefile{lot}{\addvspace {10\p@ }}
\@writefile{toc}{\contentsline {section}{\numberline {3.1}Deep Learning}{10}}
\@writefile{toc}{\contentsline {section}{\numberline {3.2}Places}{10}}
\citation{places}
\@writefile{lof}{\contentsline {figure}{\numberline {3.1}{\ignorespaces O re\c {t}ea neuronal\u {a} Deep. Surs\u {a}: \cite  {imagineDNN}}}{11}}
\newlabel{deepConvolutionalNetwork}{{3.1}{11}}
\@writefile{lof}{\contentsline {figure}{\numberline {3.2}{\ignorespaces Exemplu de cadre din setul de date Places. Surs\u {a}: \cite  {places}}}{11}}
\newlabel{placesExample}{{3.2}{11}}
\citation{fruits}
\citation{fruits}
\citation{fruits}
\citation{fruits}
\citation{fruits}
\@writefile{toc}{\contentsline {section}{\numberline {3.3}Fruits}{12}}
\@writefile{lof}{\contentsline {figure}{\numberline {3.3}{\ignorespaces Exemplu de cadre din setul de date fruits. Surs\u {a}: \cite  {fruits}}}{12}}
\newlabel{fruitsExample2}{{3.3}{12}}
\citation{adversarial}
\citation{adversarial}
\@writefile{lof}{\contentsline {figure}{\numberline {3.4}{\ignorespaces Num\u {a}rul de cadre/categorie \^{\i }n publicarea ini\c {t}ial\u {a}. Surs\u {a}: \cite  {fruits}}}{13}}
\newlabel{tabelFructe}{{3.4}{13}}
\@writefile{toc}{\contentsline {section}{\numberline {3.4}Adversarial examples}{13}}
\citation{adversarial}
\citation{dropout}
\@writefile{lof}{\contentsline {figure}{\numberline {3.5}{\ignorespaces Exemplu de clasificare gre\c {s}it\u {a}. Surs\u {a}: \cite  {adversarial}}}{14}}
\newlabel{adversarialExample}{{3.5}{14}}
\@writefile{toc}{\contentsline {section}{\numberline {3.5}Dropout}{14}}
\citation{relu}
\@writefile{lof}{\contentsline {figure}{\numberline {3.6}{\ignorespaces Exemplu de Dropout}}{15}}
\newlabel{exempluDropout}{{3.6}{15}}
\@writefile{toc}{\contentsline {section}{\numberline {3.6}Rectified linear unit (ReLU)}{15}}
\@writefile{lof}{\contentsline {figure}{\numberline {3.7}{\ignorespaces ReLU reprezentat \^{\i }n sistemul Cartezian}}{16}}
\newlabel{reluCartezian}{{3.7}{16}}
\citation{python}
\citation{tensorflow}
\citation{wikiPython}
\citation{wikiInterpreted}
\citation{wikiPython}
\@writefile{toc}{\contentsline {chapter}{Capitolul{} \numberline {4}Analiz\u {a} \c {s}i Fundamentare Teoretic\u {a}}{17}}
\@writefile{lof}{\addvspace {10\p@ }}
\@writefile{lot}{\addvspace {10\p@ }}
\newlabel{ch:analysis}{{4}{17}}
\@writefile{toc}{\contentsline {section}{\numberline {4.1}Tehnologii utilizate}{17}}
\@writefile{toc}{\contentsline {subsection}{\numberline {4.1.1}Python}{17}}
\citation{wikiTensorflow}
\citation{tensorflow}
\citation{deepLearningBook}
\citation{imagineCNN}
\@writefile{toc}{\contentsline {subsection}{\numberline {4.1.2}Tensorflow}{18}}
\@writefile{toc}{\contentsline {section}{\numberline {4.2}Convolutional Neural Network}{18}}
\citation{stanfordCNN}
\citation{stanfordCNN}
\@writefile{lof}{\contentsline {figure}{\numberline {4.1}{\ignorespaces O re\c {t}ea neuronal\u {a} Convolu\c {t}ional\u {a} dintr-o perspectiv\u {a} conceptual\u {a}. Surs\u {a}: \cite  {imagineCNN}}}{19}}
\newlabel{convolutionalNeuralNetwork}{{4.1}{19}}
\@writefile{toc}{\contentsline {subsection}{\numberline {4.2.1}Convolutional Layer}{19}}
\@writefile{toc}{\contentsline {subsection}{\numberline {4.2.2}Pooling Layer}{19}}
\@writefile{toc}{\contentsline {subsection}{\numberline {4.2.3}Feedforward Fully connected Layer}{19}}
\citation{aima}
\citation{fullyConnected}
\@writefile{lof}{\contentsline {figure}{\numberline {4.2}{\ignorespaces Efectul max pooling asupra unei imagini. Surs\u {a}: \cite  {stanfordCNN}}}{20}}
\newlabel{maxPooling2}{{4.2}{20}}
\@writefile{lof}{\contentsline {figure}{\numberline {4.3}{\ignorespaces exemplu de max pooling}}{20}}
\newlabel{maxPooling}{{4.3}{20}}
\@writefile{lof}{\contentsline {figure}{\numberline {4.4}{\ignorespaces Privire detaliat\u {a} asupra unui perceptron. Surs\u {a}: \cite  {aima}}}{20}}
\newlabel{perceptron}{{4.4}{20}}
\@writefile{toc}{\contentsline {subsection}{\numberline {4.2.4}Dropout}{20}}
\citation{learningRate}
\@writefile{lof}{\contentsline {figure}{\numberline {4.5}{\ignorespaces Fully connected layer. Surs\u {a}: \cite  {fullyConnected}}}{21}}
\newlabel{fullyConnected}{{4.5}{21}}
\@writefile{toc}{\contentsline {subsection}{\numberline {4.2.5}Backpropagation}{21}}
\@writefile{toc}{\contentsline {subsection}{\numberline {4.2.6}Learning Rate}{21}}
\citation{stanford}
\citation{stanford}
\citation{gradientDescent}
\citation{wikiGradient}
\citation{gradientDescent}
\@writefile{lof}{\contentsline {figure}{\numberline {4.6}{\ignorespaces Diferite exemple de learning rate \c {s}i influen\c {t}a lor asupra func\c {t}iei loss. Sursa: \cite  {stanford}}}{22}}
\newlabel{learningRateEx}{{4.6}{22}}
\@writefile{toc}{\contentsline {subsection}{\numberline {4.2.7}Mini-Batch Gradient Descent}{22}}
\citation{gradientDescentExample}
\citation{gradientDescentExample}
\citation{adam}
\citation{adamOptimizer}
\citation{adamOptimizer}
\@writefile{lof}{\contentsline {figure}{\numberline {4.7}{\ignorespaces Eficien\c {t}a algoritmilor stochastic, batch \c {s}i mini-batch gradient descent. Sursa: \cite  {gradientDescentExample}}}{23}}
\newlabel{miniBatchExample}{{4.7}{23}}
\@writefile{toc}{\contentsline {subsection}{\numberline {4.2.8}AdamOptimizer}{23}}
\citation{inception}
\citation{inception}
\citation{goingDeeper}
\citation{goingDeeper}
\@writefile{toc}{\contentsline {subsection}{\numberline {4.2.9}Inception}{24}}
\@writefile{lof}{\contentsline {figure}{\numberline {4.8}{\ignorespaces Modul Inception cu reducere de dimensiune. Sursa: \cite  {goingDeeper}}}{24}}
\newlabel{inceptionModule}{{4.8}{24}}
\citation{nin}
\citation{fruits}
\@writefile{toc}{\contentsline {chapter}{Capitolul{} \numberline {5}Proiectare de Detaliu \c {s}i Implementare}{25}}
\@writefile{lof}{\addvspace {10\p@ }}
\@writefile{lot}{\addvspace {10\p@ }}
\@writefile{toc}{\contentsline {section}{\numberline {5.1}Arhitectur\u {a} propus\u {a}}{25}}
\@writefile{lot}{\contentsline {table}{\numberline {5.1}{\ignorespaces CNN Architecture}}{26}}
\newlabel{tableArchitecture}{{5.1}{26}}
\citation{nin}
\@writefile{toc}{\contentsline {section}{\numberline {5.2}Dataset}{27}}
\@writefile{lof}{\contentsline {figure}{\numberline {5.1}{\ignorespaces Arhitectura CNN v\u {a}zut\u {a} din Tensorboard}}{28}}
\newlabel{architecture}{{5.1}{28}}
\@writefile{lof}{\contentsline {figure}{\numberline {5.2}{\ignorespaces Diferite filtre aplicate pe acela\c {s}i frame}}{30}}
\newlabel{differentFilters}{{5.2}{30}}
\@writefile{lof}{\contentsline {figure}{\numberline {5.3}{\ignorespaces Structura setului de date pentru str\u {a}zi}}{31}}
\newlabel{streetStructure}{{5.3}{31}}
\@writefile{lof}{\contentsline {figure}{\numberline {5.4}{\ignorespaces Structura setului de date pentru segmente prezentat pe dou\u {a} str\u {a}zi}}{31}}
\newlabel{segmentStructure}{{5.4}{31}}
\@writefile{lof}{\contentsline {figure}{\numberline {5.5}{\ignorespaces Dou\u {a} cadre redimensionate la o rezolu\c {t}ie de 32x32, 100x100 \c {s}i 168x94}}{32}}
\newlabel{redimensionat}{{5.5}{32}}
\@writefile{lof}{\contentsline {figure}{\numberline {5.6}{\ignorespaces Un cadru din setul de date pentru testare cu diferite p\u {a}r\c {t}i \^{\i }nl\u {a}turate}}{33}}
\newlabel{fourversion}{{5.6}{33}}
\@writefile{lof}{\contentsline {figure}{\numberline {5.7}{\ignorespaces Dou\u {a} cadre cu mijlocul interschimbat }}{33}}
\newlabel{rocada}{{5.7}{33}}
\@writefile{lot}{\contentsline {table}{\numberline {5.2}{\ignorespaces Num\u {a}rul de cadre/strad\u {a}}}{34}}
\newlabel{tableStrada}{{5.2}{34}}
\@writefile{toc}{\contentsline {section}{\numberline {5.3}Framework}{34}}
\@writefile{lof}{\contentsline {figure}{\numberline {5.8}{\ignorespaces Prima parcurgere, folosit\u {a} \^{\i }n antrenare}}{35}}
\newlabel{parcurgere1}{{5.8}{35}}
\@writefile{lof}{\contentsline {figure}{\numberline {5.9}{\ignorespaces A doua parcurgere, folosit\u {a} \^{\i }n antrenare}}{35}}
\newlabel{parcurgere2}{{5.9}{35}}
\@writefile{lof}{\contentsline {figure}{\numberline {5.10}{\ignorespaces A treia parcurgere, folosit\u {a} \^{\i }n validare}}{35}}
\newlabel{parcurgere3}{{5.10}{35}}
\@writefile{lot}{\contentsline {table}{\numberline {5.3}{\ignorespaces Num\u {a}rul de cadre/segment}}{36}}
\newlabel{tableSegment}{{5.3}{36}}
\@writefile{lof}{\contentsline {figure}{\numberline {5.11}{\ignorespaces Etapele necesare pentru transformarea unor date brute \^{\i }ntr-un model antrenat}}{36}}
\newlabel{pipeline}{{5.11}{36}}
\@writefile{lof}{\contentsline {figure}{\numberline {5.12}{\ignorespaces Interac\c {t}iunea dintre scripturi.}}{37}}
\newlabel{interactiune}{{5.12}{37}}
\@writefile{toc}{\contentsline {section}{\numberline {5.4}Features}{37}}
\@writefile{toc}{\contentsline {subsection}{\numberline {5.4.1}Extragerea cadrelor din video}{37}}
\@writefile{toc}{\contentsline {subsection}{\numberline {5.4.2}Redenumirea imaginilor dintr-un folder}{38}}
\@writefile{toc}{\contentsline {subsection}{\numberline {5.4.3}Redimensionarea cadrelor dintr-un set de date}{39}}
\newlabel{inainte}{{5.4.3}{40}}
\newlabel{dupa}{{5.4.3}{40}}
\newlabel{removeMiddleFromImage}{{5.4.3}{40}}
\@writefile{lof}{\contentsline {figure}{\numberline {5.13}{\ignorespaces Un frame \^{\i }nainte \c {s}i dup\u {a} aplicarea metodei removeMiddleFromImage}}{40}}
\@writefile{toc}{\contentsline {section}{\numberline {5.5}Model}{40}}
\@writefile{toc}{\contentsline {subsection}{\numberline {5.5.1}Creare de histograme}{40}}
\@writefile{toc}{\contentsline {subsection}{\numberline {5.5.2}Creare de video}{41}}
\newlabel{inainte}{{5.5.2}{42}}
\newlabel{exempluClip}{{5.5.2}{42}}
\@writefile{lof}{\contentsline {figure}{\numberline {5.14}{\ignorespaces Exemplu de cadru din videoul creat de metoda create\_video}}{42}}
\@writefile{toc}{\contentsline {subsection}{\numberline {5.5.3}Libr\u {a}rie cu date constante}{42}}
\@writefile{toc}{\contentsline {subsection}{\numberline {5.5.4}Re\c {t}eaua Convolu\c {t}ional\u {a}}{43}}
\@writefile{toc}{\contentsline {subsection}{\numberline {5.5.5}Predic\c {t}ie pe baza imaginilor}{43}}
\@writefile{toc}{\contentsline {subsection}{\numberline {5.5.6}\^{I}nc\u {a}rcarea imaginilor}{44}}
\@writefile{toc}{\contentsline {subsection}{\numberline {5.5.7}Testarea modelelor}{45}}
\@writefile{toc}{\contentsline {subsection}{\numberline {5.5.8}Antrenarea re\c {t}elelor}{45}}
\@writefile{toc}{\contentsline {subsection}{\numberline {5.5.9}Interfa\c {t}\u {a} utilizator}{47}}
\newlabel{inainte}{{5.5.9}{48}}
\newlabel{exempluClip}{{5.5.9}{48}}
\@writefile{lof}{\contentsline {figure}{\numberline {5.15}{\ignorespaces Interfa\c {t}a grafic\u {a} pentru utilizator}}{48}}
\citation{fruits}
\citation{fruits}
\@writefile{toc}{\contentsline {chapter}{Capitolul{} \numberline {6}Testare \c {s}i Validare}{49}}
\@writefile{lof}{\addvspace {10\p@ }}
\@writefile{lot}{\addvspace {10\p@ }}
\@writefile{toc}{\contentsline {section}{\numberline {6.1}Acurate\c {t}e}{49}}
\@writefile{toc}{\contentsline {section}{\numberline {6.2}Timpul necesar pentru \^{\i }nv\u {a}\c {t}are}{49}}
\citation{fruits}
\@writefile{toc}{\contentsline {section}{\numberline {6.3}Fruits 360}{50}}
\@writefile{lof}{\contentsline {figure}{\numberline {6.1}{\ignorespaces Exemple de cadre din setul de date cu fructe \cite  {fruits}}}{50}}
\newlabel{allFruits}{{6.1}{50}}
\@writefile{toc}{\contentsline {section}{\numberline {6.4}Outputul re\c {t}elelor}{50}}
\@writefile{lof}{\contentsline {figure}{\numberline {6.2}{\ignorespaces Predic\c {t}ia f\u {a}cut\u {a} de c\u {a}tre re\c {t}ele pentru o imagine de pe strada Ion Creang\u {a}, segment 5.}}{51}}
\newlabel{outputIonCreanga}{{6.2}{51}}
\@writefile{lof}{\contentsline {figure}{\numberline {6.3}{\ignorespaces Predic\c {t}ia f\u {a}cut\u {a} de c\u {a}tre re\c {t}ele pentru o imagine de pe strada Cuz\u {a} Vod\u {a}, segment 7.}}{51}}
\newlabel{outputCuzaVoda}{{6.3}{51}}
\@writefile{toc}{\contentsline {section}{\numberline {6.5}Distribu\c {t}ia predic\c {t}iilor}{51}}
\@writefile{lot}{\contentsline {table}{\numberline {6.1}{\ignorespaces Probabilit\u {a}\c {t}ile asociate r\u {a}spunsurilor corecte de c\u {a}tre re\c {t}eaua pentru recunoa\c {s}terea str\u {a}zilor.}}{52}}
\newlabel{table:5}{{6.1}{52}}
\@writefile{lot}{\contentsline {table}{\numberline {6.2}{\ignorespaces Probabilit\u {a}\c {t}ile asociate r\u {a}spunsurilor corecte de c\u {a}tre re\c {t}eaua pentru recunoa\c {s}terea segmentelor.}}{52}}
\newlabel{table:6}{{6.2}{52}}
\@writefile{toc}{\contentsline {chapter}{Capitolul{} \numberline {7}Manual de Instalare \c {s}i Utilizare}{53}}
\@writefile{lof}{\addvspace {10\p@ }}
\@writefile{lot}{\addvspace {10\p@ }}
\@writefile{toc}{\contentsline {section}{\numberline {7.1}Instalare}{53}}
\@writefile{toc}{\contentsline {subsection}{\numberline {7.1.1}Python}{53}}
\@writefile{toc}{\contentsline {subsection}{\numberline {7.1.2}CUDA}{53}}
\@writefile{toc}{\contentsline {subsection}{\numberline {7.1.3}cuDNN}{54}}
\@writefile{toc}{\contentsline {subsection}{\numberline {7.1.4}Tensorflow}{54}}
\@writefile{toc}{\contentsline {section}{\numberline {7.2}Utilizare}{54}}
\@writefile{toc}{\contentsline {subsection}{\numberline {7.2.1}Extragere cadre din video}{54}}
\@writefile{lof}{\contentsline {figure}{\numberline {7.1}{\ignorespaces Exemplu 1 de utilizare videoToFrame.py}}{54}}
\newlabel{videoToFrame1}{{7.1}{54}}
\@writefile{lof}{\contentsline {figure}{\numberline {7.2}{\ignorespaces Exemplu 2 de utilizare videoToFrame.py}}{54}}
\newlabel{videoToFrame}{{7.2}{54}}
\@writefile{toc}{\contentsline {subsection}{\numberline {7.2.2}Redenumirea cadrelor}{55}}
\@writefile{lof}{\contentsline {figure}{\numberline {7.3}{\ignorespaces Exemplu de utilizare rename.py}}{55}}
\newlabel{rename}{{7.3}{55}}
\@writefile{toc}{\contentsline {subsection}{\numberline {7.2.3}Testarea re\c {t}elelor}{55}}
\@writefile{lof}{\contentsline {figure}{\numberline {7.4}{\ignorespaces Exemplu de utilizare test\_model\_street.py}}{56}}
\newlabel{testModel1}{{7.4}{56}}
\@writefile{lof}{\contentsline {figure}{\numberline {7.5}{\ignorespaces Exemplu de utilizare test\_model\_segment.py}}{56}}
\newlabel{testModel2}{{7.5}{56}}
\@writefile{lof}{\contentsline {figure}{\numberline {7.6}{\ignorespaces Exemplu de utilizare test\_model\_street.py}}{56}}
\newlabel{testModel3}{{7.6}{56}}
\@writefile{toc}{\contentsline {subsection}{\numberline {7.2.4}Crearea unui video}{56}}
\@writefile{lof}{\contentsline {figure}{\numberline {7.7}{\ignorespaces Exemplu de utilizare create\_video.py}}{56}}
\newlabel{createVideo}{{7.7}{56}}
\@writefile{toc}{\contentsline {subsection}{\numberline {7.2.5}Predic\c {t}ii}{57}}
\@writefile{lof}{\contentsline {figure}{\numberline {7.8}{\ignorespaces Exemplu de utilizare predict\_model.py pentru a ob\c {t}ine o predic\c {t}ie \^{\i }n leg\u {a}tura cu strada pe care ne afl\u {a}m}}{57}}
\newlabel{predictModel1}{{7.8}{57}}
\@writefile{lof}{\contentsline {figure}{\numberline {7.9}{\ignorespaces Exemplu de utilizare predict\_model.py pentru a ob\c {t}ine o prezicere \^{\i }n leg\u {a}tura cu segmentul pe care ne afl\u {a}m}}{58}}
\newlabel{predictModel2}{{7.9}{58}}
\@writefile{toc}{\contentsline {subsection}{\numberline {7.2.6}Crearea histogramelor}{58}}
\@writefile{lof}{\contentsline {figure}{\numberline {7.10}{\ignorespaces Exemplu de utilizare create\_histograme.py pentru a crea histograme cu predic\c {t}iile re\c {t}elei responsabile de str\u {a}zi}}{59}}
\newlabel{createHistograme}{{7.10}{59}}
\@writefile{lof}{\contentsline {figure}{\numberline {7.11}{\ignorespaces Exemplu de utilizare create\_histograme.py pentru a crea histograme cu predic\c {t}iile re\c {t}elei responsabile de segmente}}{59}}
\newlabel{createHistograme1}{{7.11}{59}}
\@writefile{toc}{\contentsline {subsection}{\numberline {7.2.7}Redimensionarea cadrelor}{59}}
\@writefile{lof}{\contentsline {figure}{\numberline {7.12}{\ignorespaces Exemplu de utilizare resizeAll.py pentru a redimensiona setul de date etichetat dup\u {a} str\u {a}zi}}{59}}
\newlabel{resizeAll}{{7.12}{59}}
\@writefile{lof}{\contentsline {figure}{\numberline {7.13}{\ignorespaces Exemplu de utilizare resizeAll.py pentru a redimensiona setul de date etichetat dup\u {a} segmente}}{59}}
\newlabel{resizeAll1}{{7.13}{59}}
\@writefile{toc}{\contentsline {subsection}{\numberline {7.2.8}Antrenarea re\c {t}elelor Convolu\c {t}ionale}{60}}
\@writefile{lof}{\contentsline {figure}{\numberline {7.14}{\ignorespaces Exemplu de utilizare train\_model.py pentru a antrena re\c {t}eaua responsabil\u {a} de str\u {a}zi}}{60}}
\newlabel{trainModel}{{7.14}{60}}
\@writefile{lof}{\contentsline {figure}{\numberline {7.15}{\ignorespaces Exemplu de utilizare train\_model\_segment.py pentru a antrena re\c {t}eaua responsabil\u {a} de segmente}}{60}}
\newlabel{trainModelSegment}{{7.15}{60}}
\@writefile{toc}{\contentsline {subsection}{\numberline {7.2.9}Interfa\c {t}a utilizator}{61}}
\@writefile{lof}{\contentsline {figure}{\numberline {7.16}{\ignorespaces Comanda necesar\u {a} pentru a putea vedea interfa\c {t}a utilizator}}{61}}
\newlabel{pythonGui}{{7.16}{61}}
\@writefile{lof}{\contentsline {figure}{\numberline {7.17}{\ignorespaces Interfa\c {t}a utilizator}}{62}}
\newlabel{gui}{{7.17}{62}}
\@writefile{lof}{\contentsline {figure}{\numberline {7.18}{\ignorespaces Un cadru dup\u {a} etichetarea lui prin utilizarea interfe\c {t}ei utilizator}}{62}}
\newlabel{guiPrediction}{{7.18}{62}}
\citation{fruits}
\@writefile{toc}{\contentsline {chapter}{Capitolul{} \numberline {8}Concluzii}{64}}
\@writefile{lof}{\addvspace {10\p@ }}
\@writefile{lot}{\addvspace {10\p@ }}
\bibstyle{IEEEtran}
\bibdata{thesis}
\@writefile{toc}{\contentsline {section}{\numberline {8.1}Dezvolt\u {a}ri ulterioare}{65}}
\@writefile{toc}{\contentsline {subsection}{\numberline {8.1.1}Recurrent Neural Networks(RNNs)}{65}}
\@writefile{toc}{\contentsline {subsection}{\numberline {8.1.2}Filtre \c {s}i zgomot}{65}}
\@writefile{toc}{\contentsline {subsection}{\numberline {8.1.3}Aplicarea cuno\c {s}tiin\c {t}elor despre str\u {a}zi}{65}}
\@writefile{toc}{\contentsline {subsection}{\numberline {8.1.4}Cre\c {s}terea num\u {a}rului de str\u {a}zi \c {s}i a preciziei}{65}}
\bibcite{dropout}{1}
\bibcite{relu}{2}
\bibcite{backprop}{3}
\bibcite{fruits}{4}
\bibcite{places}{5}
\bibcite{backprop}{6}
\bibcite{nin}{7}
\bibcite{netvlad}{8}
\bibcite{imagineCNN}{9}
\bibcite{imagineDNN}{10}
\bibcite{deepReview}{11}
\bibcite{fullyConnected}{12}
\bibcite{stanfordCNN}{13}
\bibcite{stanford}{14}
\@writefile{toc}{\contentsline {chapter}{Bibliografie}{66}}
\bibcite{aima}{15}
\bibcite{wikiPython}{16}
\bibcite{wikiInterpreted}{17}
\bibcite{wikiTensorflow}{18}
\bibcite{python}{19}
\bibcite{tensorflow}{20}
\bibcite{adversarial}{21}
\bibcite{learningRate}{22}
\bibcite{wikiGradient}{23}
\bibcite{gradientDescent}{24}
\bibcite{gradientDescentExample}{25}
\bibcite{adamOptimizer}{26}
\bibcite{adam}{27}
\bibcite{goingDeeper}{28}
\bibcite{inception}{29}
\bibcite{deepLearningBook}{30}
\@input{apendix.aux}
